﻿{
  "MetaData": {
    "Schema": {
      "ManagerName": "ClientUnitSchemaManager",
      "UId": "8e87dca0-7e72-4bc6-af14-46e1f9795c0f",
      "A2": "SuComponent2Component",
      "A5": "7dbd87b6-b342-4c91-8f3e-c9f21bfeaaf9",
      "B1": [],
      "B2": [],
      "B3": [],
      "B6": "a46d2831-4d79-da96-153d-63b4d2e16a66",
      "B8": "7.18.5.1500",
      "HD1": "50e3acc0-26fc-4237-a095-849a1d534bd3",
      "HD4": 1,
      "HD6": "null",
      "HD5": [],
      "HD7": [],
      "HD8": [],
      "HD11": []
    }
  }
}