﻿{
  "MetaData": {
    "Schema": {
      "ManagerName": "ClientUnitSchemaManager",
      "UId": "bcad558c-765a-4412-b52a-202a269e0198",
      "A2": "SuComponent1Module",
      "A5": "7dbd87b6-b342-4c91-8f3e-c9f21bfeaaf9",
      "B1": [],
      "B2": [],
      "B3": [],
      "B6": "a46d2831-4d79-da96-153d-63b4d2e16a66",
      "B8": "7.18.5.1500",
      "HD1": "50e3acc0-26fc-4237-a095-849a1d534bd3",
      "HD4": 1,
      "HD6": "null",
      "HD5": [],
      "HD7": [],
      "HD8": [],
      "HD11": []
    }
  }
}